{
	"info": {
		"_postman_id": "db828901-a062-42d7-a878-bdd3b6dc9e0f",
		"name": "Product-API",
		"schema": "https://schema.getpostman.com/json/collection/v2.1.0/collection.json"
	},
	"item": [
		{
			"name": "Create New Product",
			"request": {
				"method": "POST",
				"header": [],
				"body": {
					"mode": "raw",
					"raw": "{\n    \"productName\": \"testProduct\",\n    \"productType\": \"test type\",\n    \"statisticFlag\": true,\n    \"alcohol\": false,\n    \"isActive\": true,\n    \"details\": {\n        \"productBrand\": \"nike\",\n        \"productCaliber\": \"1l\",\n        \"productFamily\": \"all families\",\n        \"productFlavor\": \"all flavours\",\n        \"recyclable\": true\n    }\n}",
					"options": {
						"raw": {
							"language": "json"
						}
					}
				},
				"url": {
					"raw": "http://localhost:8080/api/v1/products",
					"protocol": "http",
					"host": [
						"localhost"
					],
					"port": "8080",
					"path": [
						"api",
						"v1",
						"products"
					]
				}
			},
			"response": []
		},
		{
			"name": "Product Api - Health Check",
			"request": {
				"method": "GET",
				"header": [],
				"url": {
					"raw": "http://localhost:8080/actuator/health/custom",
					"protocol": "http",
					"host": [
						"localhost"
					],
					"port": "8080",
					"path": [
						"actuator",
						"health",
						"custom"
					]
				}
			},
			"response": []
		},
		{
			"name": "Retrieve Product By ID",
			"request": {
				"method": "GET",
				"header": [],
				"url": {
					"raw": "http://localhost:8080/api/v1/products/1",
					"protocol": "http",
					"host": [
						"localhost"
					],
					"port": "8080",
					"path": [
						"api",
						"v1",
						"products",
						"1"
					]
				}
			},
			"response": []
		},
		{
			"name": "Retrieve Product Details By Id",
			"request": {
				"method": "GET",
				"header": [],
				"url": {
					"raw": "http://localhost:8080/api/v1/products/1/details",
					"protocol": "http",
					"host": [
						"localhost"
					],
					"port": "8080",
					"path": [
						"api",
						"v1",
						"products",
						"1",
						"details"
					]
				}
			},
			"response": []
		},
		{
			"name": "Retrieve Product Master Data External Service",
			"request": {
				"method": "GET",
				"header": [],
				"url": {
					"raw": "https://618058ef8bfae60017adfa9f.mockapi.io/api/v1/master-products/1",
					"protocol": "https",
					"host": [
						"618058ef8bfae60017adfa9f",
						"mockapi",
						"io"
					],
					"path": [
						"api",
						"v1",
						"master-products",
						"1"
					]
				}
			},
			"response": []
		},
		{
			"name": "Update Product By ID",
			"request": {
				"method": "PUT",
				"header": [],
				"body": {
					"mode": "raw",
					"raw": "{\n    \"productName\": \"Mi producto\",\n    \"productType\": \"nuevo type\",\n    \"statisticFlag\": false,\n    \"alcohol\": true,\n    \"isActive\": true,\n    \"details\": {\n        \"productBrand\": \"nike\",\n        \"productCaliber\": \"1l\",\n        \"productFamily\": \"all families\",\n        \"productFlavor\": \"all flavours\",\n        \"recyclable\": true\n    }\n}",
					"options": {
						"raw": {
							"language": "json"
						}
					}
				},
				"url": {
					"raw": "http://localhost:8080/api/v1/products/1",
					"protocol": "http",
					"host": [
						"localhost"
					],
					"port": "8080",
					"path": [
						"api",
						"v1",
						"products",
						"1"
					]
				}
			},
			"response": []
		}
	]
}